\relax 
\providecommand*\new@tpo@label[2]{}
\select@language{english}
\@writefile{toc}{\select@language{english}}
\@writefile{lof}{\select@language{english}}
\@writefile{lot}{\select@language{english}}
\@writefile{toc}{\contentsline {section}{\numberline {1}Flow physics and profiling}{1}}
\@writefile{toc}{\contentsline {subsection}{\numberline {1.1}Influence of the parameters}{1}}
\@writefile{lof}{\contentsline {figure}{\numberline {1}{\ignorespaces Sectional view of the channel geometry including a backward-facing step.\relax }}{1}}
\providecommand*\caption@xref[2]{\@setref\relax\@undefined{#1}}
\newlabel{channel-geometry}{{1}{1}}
\@writefile{toc}{\contentsline {subsubsection}{\numberline {1.1.1}The Reynolds number}{1}}
\@writefile{lof}{\contentsline {figure}{\numberline {2}{\ignorespaces Velocity of the cavity flow at time 30 for different Reynolds numbers: top-left $\mathrm  {Re}=35$, top-right $\mathrm  {Re}=400$, middle-left $\mathrm  {Re}=2000$, middle-right $\mathrm  {Re}=4000$, bottom-left: $\mathrm  {Re}=16000$, bottom-right: $\mathrm  {Re}=32000$.\relax }}{2}}
\newlabel{reynolds-impact-cavity}{{2}{2}}
\@writefile{lof}{\contentsline {figure}{\numberline {3}{\ignorespaces Pressure of the cavity flow at time 30 for different Reynolds numbers: top-left $\mathrm  {Re}=35$, top-right $\mathrm  {Re}=400$, middle-left $\mathrm  {Re}=2000$, middle-right $\mathrm  {Re}=4000$, bottom-left: $\mathrm  {Re}=16000$, bottom-right: $\mathrm  {Re}=32000$.\relax }}{3}}
\newlabel{reynolds-impact-cavity-pressure}{{3}{3}}
\@writefile{lof}{\contentsline {figure}{\numberline {4}{\ignorespaces Velocity magnitude of the channel flow at time 1.33 for different Reynolds numbers: top-left $\mathrm  {Re}=40$, top-right $\mathrm  {Re}=400$, bottom-left $\mathrm  {Re}=4000$, bottom-right $\mathrm  {Re}=16000$.\relax }}{4}}
\newlabel{reynolds-impact-on-velocity-channel}{{4}{4}}
\@writefile{lof}{\contentsline {figure}{\numberline {4}{\ignorespaces Left: pressure field of the channel flow at iteration 1 for different Reynolds numbers (from top to bottom: $\mathrm  {Re}=40$, $\mathrm  {Re}=400$, $\mathrm  {Re}=4000$, $\mathrm  {Re}=16000$). Right: associated profile.\relax }}{5}}
\newlabel{reynolds-impact-on-pressure-channel}{{4}{5}}
\@writefile{toc}{\contentsline {subsubsection}{\numberline {1.1.2}Length and height of the backward-facing step}{5}}
\@writefile{lof}{\contentsline {figure}{\numberline {5}{\ignorespaces Channel flow with backward-facing step at iteration 15 for different Reynolds numbers (from top to bottom: $\mathrm  {Re}=100$, $\mathrm  {Re}=8000$, $\mathrm  {Re}=24000$). Right: velocity magnitude. Left: pressure field.\relax }}{6}}
\newlabel{reynolds-impact-on-pressure-channel-backward-facing-step-iter15}{{5}{6}}
\@writefile{lof}{\contentsline {figure}{\numberline {6}{\ignorespaces Channel flow with backward-facing step at iteration 98 for different Reynolds numbers (from top to bottom: $\mathrm  {Re}=100$, $\mathrm  {Re}=8000$, $\mathrm  {Re}=24000$). Right: velocity magnitude. Left: pressure field.\relax }}{6}}
\newlabel{reynolds-impact-on-pressure-channel-backward-facing-step-iter98}{{6}{6}}
\@writefile{lof}{\contentsline {figure}{\numberline {7}{\ignorespaces Comparison of several widths for the backward-facing step at iteration 1 ($\mathrm  {Re}=4000$). Left: velocity magnitude, right: pressure field. The height ratio of the backward-facing step is $0.8$, whereas the width ratio ranges from $0.6$ to $0.2$ with decrements of $0.2$.\relax }}{7}}
\newlabel{width-backward-facing-step-comparison-iter00}{{7}{7}}
\@writefile{lof}{\contentsline {figure}{\numberline {8}{\ignorespaces Same as in figure \ref  {width-backward-facing-step-comparison-iter00} for iteration 66.\relax }}{7}}
\newlabel{width-backward-facing-step-comparison-iter66}{{8}{7}}
\@writefile{toc}{\contentsline {subsubsection}{\numberline {1.1.3}Mesh size and type}{7}}
\@writefile{lof}{\contentsline {figure}{\numberline {9}{\ignorespaces Comparison of several heights for the backward-facing step at iteration 26 ($\mathrm  {Re}=4000$). Left: velocity magnitude, right: pressure field. The width ratio of the backward-facing step is $0.2$, whereas the height ratio ranges from $0.4$ to $0.8$ with increments of $0.2$.\relax }}{8}}
\newlabel{backward-facing-step-comparison-iter26}{{9}{8}}
\@writefile{lof}{\contentsline {figure}{\numberline {10}{\ignorespaces Same as in figure \ref  {backward-facing-step-comparison-iter26} for iteration 52.\relax }}{8}}
\newlabel{backward-facing-step-comparison-iter52}{{10}{8}}
\@writefile{lof}{\contentsline {figure}{\numberline {11}{\ignorespaces Velocity magnitude at iteration 30 ($Re=24000$). Top: uniform mesh. Bottom: stretched mesh,. Sizes from left to right: $10\times 20\times 10,\ 15\times 30\times 10,\ 20\times 40\times 10,\ 20\times 40\times 20$.\relax }}{9}}
\newlabel{mesh_influence_velocity}{{11}{9}}
\@writefile{lof}{\contentsline {figure}{\numberline {12}{\ignorespaces Pressure field at iteration 30 ($Re=24000$). Top: uniform mesh. Bottom: stretched mesh,. Sizes from left to right: $10\times 20\times 10,\ 15\times 30\times 10,\ 20\times 40\times 10,\ 20\times 40\times 20$.\relax }}{9}}
\newlabel{mesh_influence_pressure}{{12}{9}}
\@writefile{lot}{\contentsline {table}{\numberline {1}{\ignorespaces Time step for different meshes.\relax }}{10}}
\newlabel{mesh-influence-over-time-step}{{1}{10}}
\@writefile{toc}{\contentsline {subsection}{\numberline {1.2}Profiling}{10}}
\@writefile{lot}{\contentsline {table}{\numberline {2}{\ignorespaces Time spent by each function.\relax }}{10}}
\newlabel{profiler}{{2}{10}}
